peak_freq,mean_freq,label
1.511787819253438,1.2442937544706616
0.7003929273084479,0.25626519092568256
0.9941060903732809,0.38979752315562466
1.4656188605108054,1.0330492852036546
1.2111984282907662,1.3658955662000145
0.4548133595284872,0.24408736150403698
1.8349705304518664,1.0936285565904447
0.3880157170923379,0.3873371098099444
0.13654223968565815,0.29997404621619517
0.3968565815324165,0.3421122086997984
1.1758349705304518,1.0
0.21709233791748528,0.3216542924924298
1.667976424361493,1.048748053992321
1.8094302554027504,1.371282354941465
1.9941060903732808,1.2185478037350457
1.299607072691552,1.6759311012593638
1.112966601178782,1.9133138162220966
1.7868369351669942,1.4309682377802333
0.46954813359528486,0.2815181656467417
0.6326129666011788,0.31244244938348353
0.7966601178781925,0.30422556112250143
1.9862475442043221,1.058182034696085
0.8791748526522594,0.25541021696654764
0.8094302554027505,0.321291305370469
1.4096267190569745,1.7348325170328724
1.1640471512770136,1.2953160541048687
0.42534381139489197,0.44444851288713594
1.7102161100196462,1.161389902421465
0.6385068762278978,0.2722990073233157
1.506876227897839,1.1514018213858668
0.4891944990176817,0.31188704222555896
1.56286836935167,1.0533881515380457
1.393909626719057,2.0
1.043222003929273,1.0955739856276407
0.002946954813359548,0.38606213830148317
0.7996070726915521,0.31918739262921336
1.7554027504911591,1.9336792397540639
0.8703339882121808,0.3434457818652844
0.15717092337917488,0.279868298388091
0.9891944990176817,0.34498173760391915
1.1100196463654224,1.4748608657056064
0.8575638506876228,0.30023144115664346
0.6090373280943026,0.21816822338178476
1.668958742632613,1.8793483293217585
0.6149312377210217,0.2960105857786762
0.5893909626719057,0.2991668403657858
1.3703339882121808,1.1467675339631174
1.8408644400785854,1.275214148582891
1.8447937131630647,1.2049667581342134
1.5196463654223968,1.994133893757068
0.8644400785854617,0.3036660495481588
0.087426326129666,0.36058621756674214
1.5019646365422397,1.0682435861089399
1.1394891944990178,1.5916199681351642
0.8664047151277013,0.24105096538943538
1.4607072691552063,1.3614780754769238
1.5176817288801572,1.0468400721321636
0.24459724950884087,0.28790865849486835
1.955795677799607,1.0365239082374433
0.6542239685658153,0.3158422388185037
0.3919449901768173,0.23191391698884534
1.7092337917485265,1.6725861570856009
1.5353634577603144,1.7315928170306396
1.081532416502947,1.210455864977368
0.5805500982318271,0.2670232965558904
0.33104125736738704,0.3193828077641373
0.23084479371316308,0.371058799076028
0.6414538310412574,0.2779025435385959
1.6964636542239686,1.1289262239748472
1.0,0.3131462078188524
0.6679764243614931,0.3063980844381805
1.962671905697446,1.5944428737886347
0.10019646365422397,0.2735639604388803
1.2789783889980355,1.0950005017411164
